C:\Users\lipe_\source\repos\ProAgil.Api\ProAgil.Api\ProAgil-App\dist\out-tsc\e2e\src\app.po.js
C:\Users\lipe_\source\repos\ProAgil.Api\ProAgil.Api\ProAgil-App\dist\out-tsc\e2e\src\app.po.js.map
C:\Users\lipe_\source\repos\ProAgil.Api\ProAgil.Api\ProAgil-App\dist\out-tsc\e2e\src\app.e2e-spec.js
C:\Users\lipe_\source\repos\ProAgil.Api\ProAgil.Api\ProAgil-App\dist\out-tsc\e2e\src\app.e2e-spec.js.map
C:\Users\lipe_\source\repos\ProAgil.Api\ProAgil.Api\ProAgil-App\dist\out-tsc\src\app\auth\auth.interceptor.js
C:\Users\lipe_\source\repos\ProAgil.Api\ProAgil.Api\ProAgil-App\dist\out-tsc\src\app\auth\auth.interceptor.js.map
C:\Users\lipe_\source\repos\ProAgil.Api\ProAgil.Api\ProAgil-App\dist\out-tsc\src\app\models\RedeSocial.js
C:\Users\lipe_\source\repos\ProAgil.Api\ProAgil.Api\ProAgil-App\dist\out-tsc\src\app\models\RedeSocial.js.map
C:\Users\lipe_\source\repos\ProAgil.Api\ProAgil.Api\ProAgil-App\dist\out-tsc\src\app\models\Lote.js
C:\Users\lipe_\source\repos\ProAgil.Api\ProAgil.Api\ProAgil-App\dist\out-tsc\src\app\models\Lote.js.map
C:\Users\lipe_\source\repos\ProAgil.Api\ProAgil.Api\ProAgil-App\dist\out-tsc\src\app\models\Evento.js
C:\Users\lipe_\source\repos\ProAgil.Api\ProAgil.Api\ProAgil-App\dist\out-tsc\src\app\models\Evento.js.map
C:\Users\lipe_\source\repos\ProAgil.Api\ProAgil.Api\ProAgil-App\dist\out-tsc\src\app\services\evento.service.js
C:\Users\lipe_\source\repos\ProAgil.Api\ProAgil.Api\ProAgil-App\dist\out-tsc\src\app\services\evento.service.js.map
C:\Users\lipe_\source\repos\ProAgil.Api\ProAgil.Api\ProAgil-App\dist\out-tsc\src\app\eventos\evento-edit\evento-edit.component.js
C:\Users\lipe_\source\repos\ProAgil.Api\ProAgil.Api\ProAgil-App\dist\out-tsc\src\app\eventos\evento-edit\evento-edit.component.js.map
C:\Users\lipe_\source\repos\ProAgil.Api\ProAgil.Api\ProAgil-App\dist\out-tsc\src\app\dashboard\dashboard.component.js
C:\Users\lipe_\source\repos\ProAgil.Api\ProAgil.Api\ProAgil-App\dist\out-tsc\src\app\dashboard\dashboard.component.js.map
C:\Users\lipe_\source\repos\ProAgil.Api\ProAgil.Api\ProAgil-App\dist\out-tsc\src\app\contatos\contatos.component.js
C:\Users\lipe_\source\repos\ProAgil.Api\ProAgil.Api\ProAgil-App\dist\out-tsc\src\app\contatos\contatos.component.js.map
C:\Users\lipe_\source\repos\ProAgil.Api\ProAgil.Api\ProAgil-App\dist\out-tsc\src\app\palestrantes\palestrantes.component.js
C:\Users\lipe_\source\repos\ProAgil.Api\ProAgil.Api\ProAgil-App\dist\out-tsc\src\app\palestrantes\palestrantes.component.js.map
C:\Users\lipe_\source\repos\ProAgil.Api\ProAgil.Api\ProAgil-App\dist\out-tsc\src\app\eventos\eventos.component.js
C:\Users\lipe_\source\repos\ProAgil.Api\ProAgil.Api\ProAgil-App\dist\out-tsc\src\app\eventos\eventos.component.js.map
C:\Users\lipe_\source\repos\ProAgil.Api\ProAgil.Api\ProAgil-App\dist\out-tsc\src\app\user\user.component.js
C:\Users\lipe_\source\repos\ProAgil.Api\ProAgil.Api\ProAgil-App\dist\out-tsc\src\app\user\user.component.js.map
C:\Users\lipe_\source\repos\ProAgil.Api\ProAgil.Api\ProAgil-App\dist\out-tsc\src\app\models\User.js
C:\Users\lipe_\source\repos\ProAgil.Api\ProAgil.Api\ProAgil-App\dist\out-tsc\src\app\models\User.js.map
C:\Users\lipe_\source\repos\ProAgil.Api\ProAgil.Api\ProAgil-App\dist\out-tsc\src\app\services\auth.service.js
C:\Users\lipe_\source\repos\ProAgil.Api\ProAgil.Api\ProAgil-App\dist\out-tsc\src\app\services\auth.service.js.map
C:\Users\lipe_\source\repos\ProAgil.Api\ProAgil.Api\ProAgil-App\dist\out-tsc\src\app\user\registration\registration.component.js
C:\Users\lipe_\source\repos\ProAgil.Api\ProAgil.Api\ProAgil-App\dist\out-tsc\src\app\user\registration\registration.component.js.map
C:\Users\lipe_\source\repos\ProAgil.Api\ProAgil.Api\ProAgil-App\dist\out-tsc\src\app\user\login\login.component.js
C:\Users\lipe_\source\repos\ProAgil.Api\ProAgil.Api\ProAgil-App\dist\out-tsc\src\app\user\login\login.component.js.map
C:\Users\lipe_\source\repos\ProAgil.Api\ProAgil.Api\ProAgil-App\dist\out-tsc\src\app\auth\auth.guard.js
C:\Users\lipe_\source\repos\ProAgil.Api\ProAgil.Api\ProAgil-App\dist\out-tsc\src\app\auth\auth.guard.js.map
C:\Users\lipe_\source\repos\ProAgil.Api\ProAgil.Api\ProAgil-App\dist\out-tsc\src\app\app-routing.module.js
C:\Users\lipe_\source\repos\ProAgil.Api\ProAgil.Api\ProAgil-App\dist\out-tsc\src\app\app-routing.module.js.map
C:\Users\lipe_\source\repos\ProAgil.Api\ProAgil.Api\ProAgil-App\dist\out-tsc\src\app\app.component.js
C:\Users\lipe_\source\repos\ProAgil.Api\ProAgil.Api\ProAgil-App\dist\out-tsc\src\app\app.component.js.map
C:\Users\lipe_\source\repos\ProAgil.Api\ProAgil.Api\ProAgil-App\dist\out-tsc\src\app\nav\nav.component.js
C:\Users\lipe_\source\repos\ProAgil.Api\ProAgil.Api\ProAgil-App\dist\out-tsc\src\app\nav\nav.component.js.map
C:\Users\lipe_\source\repos\ProAgil.Api\ProAgil.Api\ProAgil-App\dist\out-tsc\src\app\util\Constants.js
C:\Users\lipe_\source\repos\ProAgil.Api\ProAgil.Api\ProAgil-App\dist\out-tsc\src\app\util\Constants.js.map
C:\Users\lipe_\source\repos\ProAgil.Api\ProAgil.Api\ProAgil-App\dist\out-tsc\src\app\helper\DateTimeFormat.pipe.js
C:\Users\lipe_\source\repos\ProAgil.Api\ProAgil.Api\ProAgil-App\dist\out-tsc\src\app\helper\DateTimeFormat.pipe.js.map
C:\Users\lipe_\source\repos\ProAgil.Api\ProAgil.Api\ProAgil-App\dist\out-tsc\src\app\shared\titulo\titulo.component.js
C:\Users\lipe_\source\repos\ProAgil.Api\ProAgil.Api\ProAgil-App\dist\out-tsc\src\app\shared\titulo\titulo.component.js.map
C:\Users\lipe_\source\repos\ProAgil.Api\ProAgil.Api\ProAgil-App\dist\out-tsc\src\app\app.module.js
C:\Users\lipe_\source\repos\ProAgil.Api\ProAgil.Api\ProAgil-App\dist\out-tsc\src\app\app.module.js.map
C:\Users\lipe_\source\repos\ProAgil.Api\ProAgil.Api\ProAgil-App\dist\out-tsc\src\environments\environment.js
C:\Users\lipe_\source\repos\ProAgil.Api\ProAgil.Api\ProAgil-App\dist\out-tsc\src\environments\environment.js.map
C:\Users\lipe_\source\repos\ProAgil.Api\ProAgil.Api\ProAgil-App\dist\out-tsc\src\main.js
C:\Users\lipe_\source\repos\ProAgil.Api\ProAgil.Api\ProAgil-App\dist\out-tsc\src\main.js.map
C:\Users\lipe_\source\repos\ProAgil.Api\ProAgil.Api\ProAgil-App\dist\out-tsc\src\polyfills.js
C:\Users\lipe_\source\repos\ProAgil.Api\ProAgil.Api\ProAgil-App\dist\out-tsc\src\polyfills.js.map
C:\Users\lipe_\source\repos\ProAgil.Api\ProAgil.Api\ProAgil-App\dist\out-tsc\src\test.js
C:\Users\lipe_\source\repos\ProAgil.Api\ProAgil.Api\ProAgil-App\dist\out-tsc\src\test.js.map
C:\Users\lipe_\source\repos\ProAgil.Api\ProAgil.Api\ProAgil-App\dist\out-tsc\src\app\app.component.spec.js
C:\Users\lipe_\source\repos\ProAgil.Api\ProAgil.Api\ProAgil-App\dist\out-tsc\src\app\app.component.spec.js.map
C:\Users\lipe_\source\repos\ProAgil.Api\ProAgil.Api\ProAgil-App\dist\out-tsc\src\app\auth\auth.guard.spec.js
C:\Users\lipe_\source\repos\ProAgil.Api\ProAgil.Api\ProAgil-App\dist\out-tsc\src\app\auth\auth.guard.spec.js.map
C:\Users\lipe_\source\repos\ProAgil.Api\ProAgil.Api\ProAgil-App\dist\out-tsc\src\app\contatos\contatos.component.spec.js
C:\Users\lipe_\source\repos\ProAgil.Api\ProAgil.Api\ProAgil-App\dist\out-tsc\src\app\contatos\contatos.component.spec.js.map
C:\Users\lipe_\source\repos\ProAgil.Api\ProAgil.Api\ProAgil-App\dist\out-tsc\src\app\dashboard\dashboard.component.spec.js
C:\Users\lipe_\source\repos\ProAgil.Api\ProAgil.Api\ProAgil-App\dist\out-tsc\src\app\dashboard\dashboard.component.spec.js.map
C:\Users\lipe_\source\repos\ProAgil.Api\ProAgil.Api\ProAgil-App\dist\out-tsc\src\app\eventos\eventos.component.spec.js
C:\Users\lipe_\source\repos\ProAgil.Api\ProAgil.Api\ProAgil-App\dist\out-tsc\src\app\eventos\eventos.component.spec.js.map
C:\Users\lipe_\source\repos\ProAgil.Api\ProAgil.Api\ProAgil-App\dist\out-tsc\src\app\eventos\evento-edit\evento-edit.component.spec.js
C:\Users\lipe_\source\repos\ProAgil.Api\ProAgil.Api\ProAgil-App\dist\out-tsc\src\app\eventos\evento-edit\evento-edit.component.spec.js.map
C:\Users\lipe_\source\repos\ProAgil.Api\ProAgil.Api\ProAgil-App\dist\out-tsc\src\app\helper\DateTimeFormat.pipe.spec.js
C:\Users\lipe_\source\repos\ProAgil.Api\ProAgil.Api\ProAgil-App\dist\out-tsc\src\app\helper\DateTimeFormat.pipe.spec.js.map
C:\Users\lipe_\source\repos\ProAgil.Api\ProAgil.Api\ProAgil-App\dist\out-tsc\src\app\models\Palestrante.js
C:\Users\lipe_\source\repos\ProAgil.Api\ProAgil.Api\ProAgil-App\dist\out-tsc\src\app\models\Palestrante.js.map
C:\Users\lipe_\source\repos\ProAgil.Api\ProAgil.Api\ProAgil-App\dist\out-tsc\src\app\nav\nav.component.spec.js
C:\Users\lipe_\source\repos\ProAgil.Api\ProAgil.Api\ProAgil-App\dist\out-tsc\src\app\nav\nav.component.spec.js.map
C:\Users\lipe_\source\repos\ProAgil.Api\ProAgil.Api\ProAgil-App\dist\out-tsc\src\app\palestrantes\palestrantes.component.spec.js
C:\Users\lipe_\source\repos\ProAgil.Api\ProAgil.Api\ProAgil-App\dist\out-tsc\src\app\palestrantes\palestrantes.component.spec.js.map
C:\Users\lipe_\source\repos\ProAgil.Api\ProAgil.Api\ProAgil-App\dist\out-tsc\src\app\services\auth.service.spec.js
C:\Users\lipe_\source\repos\ProAgil.Api\ProAgil.Api\ProAgil-App\dist\out-tsc\src\app\services\auth.service.spec.js.map
C:\Users\lipe_\source\repos\ProAgil.Api\ProAgil.Api\ProAgil-App\dist\out-tsc\src\app\services\evento.service.spec.js
C:\Users\lipe_\source\repos\ProAgil.Api\ProAgil.Api\ProAgil-App\dist\out-tsc\src\app\services\evento.service.spec.js.map
C:\Users\lipe_\source\repos\ProAgil.Api\ProAgil.Api\ProAgil-App\dist\out-tsc\src\app\shared\titulo\titulo.component.spec.js
C:\Users\lipe_\source\repos\ProAgil.Api\ProAgil.Api\ProAgil-App\dist\out-tsc\src\app\shared\titulo\titulo.component.spec.js.map
C:\Users\lipe_\source\repos\ProAgil.Api\ProAgil.Api\ProAgil-App\dist\out-tsc\src\app\user\user.component.spec.js
C:\Users\lipe_\source\repos\ProAgil.Api\ProAgil.Api\ProAgil-App\dist\out-tsc\src\app\user\user.component.spec.js.map
C:\Users\lipe_\source\repos\ProAgil.Api\ProAgil.Api\ProAgil-App\dist\out-tsc\src\app\user\login\login.component.spec.js
C:\Users\lipe_\source\repos\ProAgil.Api\ProAgil.Api\ProAgil-App\dist\out-tsc\src\app\user\login\login.component.spec.js.map
C:\Users\lipe_\source\repos\ProAgil.Api\ProAgil.Api\ProAgil-App\dist\out-tsc\src\app\user\registration\registration.component.spec.js
C:\Users\lipe_\source\repos\ProAgil.Api\ProAgil.Api\ProAgil-App\dist\out-tsc\src\app\user\registration\registration.component.spec.js.map
C:\Users\lipe_\source\repos\ProAgil.Api\ProAgil.Api\ProAgil-App\dist\out-tsc\src\environments\environment.prod.js
C:\Users\lipe_\source\repos\ProAgil.Api\ProAgil.Api\ProAgil-App\dist\out-tsc\src\environments\environment.prod.js.map
