C:\Users\lipe_\source\repos\ProAgil.Api\ProAgil.Api\ProAgil-App\out-tsc\e2e\app.po.js
C:\Users\lipe_\source\repos\ProAgil.Api\ProAgil.Api\ProAgil-App\out-tsc\e2e\app.po.js.map
C:\Users\lipe_\source\repos\ProAgil.Api\ProAgil.Api\ProAgil-App\out-tsc\e2e\app.e2e-spec.js
C:\Users\lipe_\source\repos\ProAgil.Api\ProAgil.Api\ProAgil-App\out-tsc\e2e\app.e2e-spec.js.map
